%YAML 1.1
%TAG !u! tag:unity3d.com,2011:
--- !u!181963792 &2655988077585873504
Preset:
  m_ObjectHideFlags: 0
  m_CorrespondingSourceObject: {fileID: 0}
  m_PrefabInstance: {fileID: 0}
  m_PrefabAsset: {fileID: 0}
  m_Name: Tire-Rigidbody2D
  m_TargetType:
    m_NativeTypeID: 50
    m_ManagedTypePPtr: {fileID: 0}
    m_ManagedTypeFallback: 
  m_Properties:
  - target: {fileID: 0}
    propertyPath: m_BodyType
    value: 0
    objectReference: {fileID: 0}
  - target: {fileID: 0}
    propertyPath: m_Simulated
    value: 1
    objectReference: {fileID: 0}
  - target: {fileID: 0}
    propertyPath: m_UseFullKinematicContacts
    value: 0
    objectReference: {fileID: 0}
  - target: {fileID: 0}
    propertyPath: m_UseAutoMass
    value: 0
    objectReference: {fileID: 0}
  - target: {fileID: 0}
    propertyPath: m_Mass
    value: 200
    objectReference: {fileID: 0}
  - target: {fileID: 0}
    propertyPath: m_LinearDrag
    value: 12.65
    objectReference: {fileID: 0}
  - target: {fileID: 0}
    propertyPath: m_AngularDrag
    value: 2.16
    objectReference: {fileID: 0}
  - target: {fileID: 0}
    propertyPath: m_GravityScale
    value: 0
    objectReference: {fileID: 0}
  - target: {fileID: 0}
    propertyPath: m_Material
    value: 
    objectReference: {fileID: 0}
  - target: {fileID: 0}
    propertyPath: m_Interpolate
    value: 0
    objectReference: {fileID: 0}
  - target: {fileID: 0}
    propertyPath: m_SleepingMode
    value: 1
    objectReference: {fileID: 0}
  - target: {fileID: 0}
    propertyPath: m_CollisionDetection
    value: 0
    objectReference: {fileID: 0}
  - target: {fileID: 0}
    propertyPath: m_Constraints
    value: 0
    objectReference: {fileID: 0}
